{
  "status": 200,
  "message": "Data Processed Successfully",
  "data": [{
    "survey_name": "Support Satisfaction",
    "survey_id": "200",
    "survey_description": "i am description",
    "survey_questions": [
      {
      "survey_id": "3200",
      "question_id": "101",
      "questionName": "Are you satisfied with the service of the product and services ?",
      "question_type": "Radiobutton",
        "options": [
          {
            "question_id": "101",
            "option_id": "1001",
            "choices": "Satisfied"
          },
          {
            "question_id": "101",
            "option_id": "1002",
            "choices": "Not satisfied"
          },
          {
            "question_id": "101",
            "option_id": "1003",
            "choices": "Can't comment"
          },
          {
            "question_id": "101",
            "option_id": "1004",
            "choices": "Others"
          }
        ]
      },

      {
        "survey_id": "200",
        "question_id": "102",
        "questionName": "how are you?",
        "question_type": "Radiobutton",
        "options": [
          {
            "question_id": "102",
            "option_id": "1005",
            "choices": "good"
          },
          {
            "question_id": "102",
            "option_id": "1006",
            "choices": "Not good"
          },
          {
            "question_id": "102",
            "option_id": "1007",
            "choices": "Can't say"
          },
          {
            "question_id": "102",
            "option_id": "1008",
            "choices": "Others"
          }
        ]
      }

    ]
  }
  ]

}



